<svg width="1440" height="1920" viewBox="0 0 1440 1920" fill="none" xmlns="http://www.w3.org/2000/svg">
<g clip-path="url(#clip0)">
<g style="mix-blend-mode:screen">
<path d="M411.5 705.5C600.5 710 635.5 966.5 1097 924.5C1200 915.126 1320.34 874.892 1438.48 822.365V1837.83C1351.96 1880.07 1261 1911.29 1176 1917.5C758.5 1948 621.5 1654 411.5 1675C243.5 1691.8 60.1667 1797 -10.5 1847.5V822.365C97.7535 772.208 281.56 702.406 411.5 705.5Z" fill="url(#paint0_linear)" fill-opacity="0.5"/>
</g>
</g>
<defs>
<linearGradient id="paint0_linear" x1="962.204" y1="487.947" x2="962.204" y2="1919.72" gradientUnits="userSpaceOnUse">
<stop stop-color="#6C9A8B"/>
<stop offset="1" stop-color="#6C9A8B" stop-opacity="0"/>
</linearGradient>
<clipPath id="clip0">
<rect width="1440" height="1920" fill="white"/>
</clipPath>
</defs>
</svg>
