<svg width="1440" height="1434" viewBox="0 0 1440 1434" fill="none" xmlns="http://www.w3.org/2000/svg">
<g style="mix-blend-mode:screen">
<path d="M411.5 218.5C600.5 223 635.5 479.5 1097 437.5C1200 428.126 1320.34 387.892 1438.48 335.365V1350.83C1351.96 1393.07 1261 1424.29 1176 1430.5C758.5 1461 621.5 1167 411.5 1188C243.5 1204.8 60.1667 1310 -10.5 1360.5V335.365C97.7535 285.208 281.56 215.406 411.5 218.5Z" fill="url(#paint0_linear)" fill-opacity="0.5"/>
<path d="M-57 358C-43.9003 351.251 -28.2113 343.571 -10.5 335.365M1768.5 123C2234.2 -179.178 1849.66 152.547 1438.48 335.365M-10.5 335.365C97.7535 285.208 281.56 215.406 411.5 218.5C600.5 223 635.5 479.5 1097 437.5C1200 428.126 1320.34 387.892 1438.48 335.365M-10.5 335.365V1360.5C60.1667 1310 243.5 1204.8 411.5 1188C621.5 1167 758.5 1461 1176 1430.5C1261 1424.29 1351.96 1393.07 1438.48 1350.83M1626 1188C2047.3 851.914 1776.93 1185.62 1438.48 1350.83M1438.48 335.365V1350.83" stroke="#1C2321"/>
</g>
<defs>
<linearGradient id="paint0_linear" x1="962.204" y1="0.946594" x2="962.204" y2="1432.72" gradientUnits="userSpaceOnUse">
<stop stop-color="#6C9A8B"/>
<stop offset="1" stop-color="#6C9A8B" stop-opacity="0"/>
</linearGradient>
</defs>
</svg>
